{
    "tasks": {
      "dev": "deno run --watch --allow-all main.ts",
      "serve": "deno run --allow-all main.ts",
      "healthcheck": "deno run --allow-all healthcheck.ts"
    },
    "fmt": {
      "lineWidth": 120,
      "indentWidth": 4,
      "semiColons": true,
      "singleQuote": true
    }
  }